<?xml version="1.0" encoding="UTF-8" standalone="no"?>
<svg
   xmlns:dc="http://purl.org/dc/elements/1.1/"
   xmlns:cc="http://creativecommons.org/ns#"
   xmlns:rdf="http://www.w3.org/1999/02/22-rdf-syntax-ns#"
   xmlns:svg="http://www.w3.org/2000/svg"
   xmlns="http://www.w3.org/2000/svg"
   xmlns:sodipodi="http://sodipodi.sourceforge.net/DTD/sodipodi-0.dtd"
   xmlns:inkscape="http://www.inkscape.org/namespaces/inkscape"
   width="95.999985mm"
   height="96.000008mm"
   viewBox="0 0 95.999985 96.000008"
   version="1.1"
   id="svg20678"
   inkscape:version="1.0.1 (3bc2e813f5, 2020-09-07)"
   sodipodi:docname="29.svg">
  <defs
     id="defs20672">
    <clipPath
       id="clipPath5848"
       clipPathUnits="userSpaceOnUse">
      <path
         id="path5846"
         d="M 0,566.929 H 340.157 V 0 H 0 Z" />
    </clipPath>
    <clipPath
       id="clipPath7586"
       clipPathUnits="userSpaceOnUse">
      <path
         id="path7584"
         d="M 0,566.929 H 340.157 V 0 H 0 Z" />
    </clipPath>
  </defs>
  <sodipodi:namedview
     id="base"
     pagecolor="#ffffff"
     bordercolor="#666666"
     borderopacity="1.0"
     inkscape:pageopacity="0.0"
     inkscape:pageshadow="2"
     inkscape:zoom="1"
     inkscape:cx="99.43972"
     inkscape:cy="170.50272"
     inkscape:document-units="mm"
     inkscape:current-layer="layer1"
     inkscape:document-rotation="0"
     showgrid="false"
     inkscape:window-width="1366"
     inkscape:window-height="705"
     inkscape:window-x="-8"
     inkscape:window-y="-8"
     inkscape:window-maximized="1"
     showguides="false" />
  <metadata
     id="metadata20675">
    <rdf:RDF>
      <cc:Work
         rdf:about="">
        <dc:format>image/svg+xml</dc:format>
        <dc:type
           rdf:resource="http://purl.org/dc/dcmitype/StillImage" />
        <dc:title></dc:title>
      </cc:Work>
    </rdf:RDF>
  </metadata>
  <g
     inkscape:label="Layer 1"
     inkscape:groupmode="layer"
     id="layer1"
     transform="translate(-82.565949,-10.135576)">
    <g
       id="g5842"
       transform="matrix(6.7935727,0,0,-6.7926129,-1745.1422,454.63262)"
       style="fill:#93cad5;fill-opacity:1">
      <g
         clip-path="url(#clipPath5848)"
         id="g5844"
         style="fill:#93cad5;fill-opacity:1">
        <g
           transform="translate(283.1659,52.0993)"
           id="g5850"
           style="stroke-width:1.00063;stroke-miterlimit:4;stroke-dasharray:none;paint-order:normal;fill:#93cad5;fill-opacity:1">
          <path
             id="path5852"
             style="fill:#93cad5;fill-opacity:1;fill-rule:evenodd;stroke:none;stroke-width:1.00063;stroke-miterlimit:4;stroke-dasharray:none;paint-order:normal"
             d="M -0.00199218,-0.79250782 H -14.129508 l 8e-6,14.13001582 14.12750782,-0.0029 z"
             sodipodi:nodetypes="ccccc" />
        </g>
        <g
           transform="translate(283.1659,52.0993)"
           id="g5854"
           style="stroke-width:0;stroke-miterlimit:4;stroke-dasharray:none;fill:#93cad5;fill-opacity:1">
          <path
             id="path5856"
             style="fill:#93cad5;stroke:#231f20;stroke-width:0;stroke-linecap:butt;stroke-linejoin:miter;stroke-miterlimit:4;stroke-dasharray:none;stroke-opacity:1;fill-opacity:1"
             d="m 0,0 c 0,-0.437 -0.357,-0.794 -0.795,-0.794 h -12.542 c -0.436,0 -0.794,0.357 -0.794,0.794 v 12.545 c 0,0.436 0.358,0.794 0.794,0.794 H -0.795 C -0.357,13.339 0,12.981 0,12.545 Z" />
        </g>
      </g>
    </g>
    <text
       id="text5868"
       style="font-variant:normal;font-weight:bold;font-stretch:normal;font-size:70.5556px;font-family:Achemine;-inkscape-font-specification:Achemine-Bold;letter-spacing:0px;writing-mode:lr-tb;fill:#000000;fill-opacity:1;fill-rule:nonzero;stroke:none;stroke-width:6.79308"
       x="88.725319"
       y="84.980431"
       transform="scale(1.0000707,0.99992931)"><tspan
         id="tspan5866"
         y="84.980431"
         x="88.725319"
         style="font-style:normal;font-variant:normal;font-weight:bold;font-stretch:normal;font-size:74.7889px;font-family:Achemine;-inkscape-font-specification:'Achemine Bold';fill:#000000;fill-opacity:1;stroke-width:6.79308">29</tspan></text>
    <g
       id="g7580"
       transform="matrix(6.7935727,0,0,-6.7926129,-1745.1422,454.63262)">
      <g
         clip-path="url(#clipPath7586)"
         id="g7582">
        <g
           transform="translate(272.5839,56.3445)"
           id="g7588">
          <path
             id="path7590"
             style="fill:#9845a8;fill-opacity:1;fill-rule:evenodd;stroke:none"
             d="M 0,0 Z" />
        </g>
      </g>
    </g>
    <g
       transform="matrix(6.7935727,0,0,-6.7926129,106.6763,71.906255)"
       id="g7592">
      <path
         id="path7594"
         style="fill:none;stroke:#231f20;stroke-width:0.564;stroke-linecap:butt;stroke-linejoin:miter;stroke-miterlimit:3.864;stroke-dasharray:none;stroke-opacity:1"
         d="M 0,0 Z" />
    </g>
  </g>
</svg>
