<?xml version="1.0" encoding="UTF-8" standalone="no"?>
<svg
   xmlns:dc="http://purl.org/dc/elements/1.1/"
   xmlns:cc="http://creativecommons.org/ns#"
   xmlns:rdf="http://www.w3.org/1999/02/22-rdf-syntax-ns#"
   xmlns:svg="http://www.w3.org/2000/svg"
   xmlns="http://www.w3.org/2000/svg"
   xmlns:sodipodi="http://sodipodi.sourceforge.net/DTD/sodipodi-0.dtd"
   xmlns:inkscape="http://www.inkscape.org/namespaces/inkscape"
   width="95.999985mm"
   height="96.000008mm"
   viewBox="0 0 95.999985 96.000008"
   version="1.1"
   id="svg20678"
   inkscape:version="1.0.1 (3bc2e813f5, 2020-09-07)"
   sodipodi:docname="scol.svg">
  <defs
     id="defs20672">
    <clipPath
       id="clipPath5848"
       clipPathUnits="userSpaceOnUse">
      <path
         id="path5846"
         d="M 0,566.929 H 340.157 V 0 H 0 Z" />
    </clipPath>
    <clipPath
       id="clipPath7586"
       clipPathUnits="userSpaceOnUse">
      <path
         id="path7584"
         d="M 0,566.929 H 340.157 V 0 H 0 Z" />
    </clipPath>
  </defs>
  <sodipodi:namedview
     id="base"
     pagecolor="#ffffff"
     bordercolor="#666666"
     borderopacity="1.0"
     inkscape:pageopacity="0.0"
     inkscape:pageshadow="2"
     inkscape:zoom="1"
     inkscape:cx="48.43972"
     inkscape:cy="170.50272"
     inkscape:document-units="mm"
     inkscape:current-layer="layer1"
     inkscape:document-rotation="0"
     showgrid="false"
     inkscape:window-width="1366"
     inkscape:window-height="705"
     inkscape:window-x="-8"
     inkscape:window-y="-8"
     inkscape:window-maximized="1"
     showguides="false" />
  <metadata
     id="metadata20675">
    <rdf:RDF>
      <cc:Work
         rdf:about="">
        <dc:format>image/svg+xml</dc:format>
        <dc:type
           rdf:resource="http://purl.org/dc/dcmitype/StillImage" />
        <dc:title></dc:title>
      </cc:Work>
    </rdf:RDF>
  </metadata>
  <g
     inkscape:label="Layer 1"
     inkscape:groupmode="layer"
     id="layer1"
     transform="translate(-82.565949,-10.135576)">
    <g
       id="g5842"
       transform="matrix(6.7935727,0,0,-6.7926129,-1745.1422,454.63262)"
       style="fill:#f8c000;fill-opacity:1">
      <g
         clip-path="url(#clipPath5848)"
         id="g5844"
         style="fill:#f8c000;fill-opacity:1">
        <g
           transform="translate(283.1659,52.0993)"
           id="g5850"
           style="stroke-width:1.00063;stroke-miterlimit:4;stroke-dasharray:none;paint-order:normal;fill:#f8c000;fill-opacity:1">
          <path
             id="path5852"
             style="fill:#f8c000;fill-opacity:1;fill-rule:evenodd;stroke:none;stroke-width:1.00063;stroke-miterlimit:4;stroke-dasharray:none;paint-order:normal"
             d="M -0.00199218,-0.79250782 H -14.129508 l 8e-6,14.13001582 14.12750782,-0.0029 z"
             sodipodi:nodetypes="ccccc" />
        </g>
        <g
           transform="translate(283.1659,52.0993)"
           id="g5854"
           style="stroke-width:0;stroke-miterlimit:4;stroke-dasharray:none;fill:#f8c000;fill-opacity:1">
          <path
             id="path5856"
             style="fill:#f8c000;stroke:#231f20;stroke-width:0;stroke-linecap:butt;stroke-linejoin:miter;stroke-miterlimit:4;stroke-dasharray:none;stroke-opacity:1;fill-opacity:1"
             d="m 0,0 c 0,-0.437 -0.357,-0.794 -0.795,-0.794 h -12.542 c -0.436,0 -0.794,0.357 -0.794,0.794 v 12.545 c 0,0.436 0.358,0.794 0.794,0.794 H -0.795 C -0.357,13.339 0,12.981 0,12.545 Z" />
        </g>
      </g>
    </g>
    <g
       id="g7580"
       transform="matrix(6.7935727,0,0,-6.7926129,-1745.1422,454.63262)">
      <g
         clip-path="url(#clipPath7586)"
         id="g7582">
        <g
           transform="translate(272.5839,56.3445)"
           id="g7588">
          <path
             id="path7590"
             style="fill:#9845a8;fill-opacity:1;fill-rule:evenodd;stroke:none"
             d="M 0,0 Z" />
        </g>
      </g>
    </g>
    <g
       transform="matrix(6.7935727,0,0,-6.7926129,106.6763,71.906255)"
       id="g7592">
      <path
         id="path7594"
         style="fill:none;stroke:#231f20;stroke-width:0.564;stroke-linecap:butt;stroke-linejoin:miter;stroke-miterlimit:3.864;stroke-dasharray:none;stroke-opacity:1"
         d="M 0,0 Z" />
    </g>
    <path
       d="m 111.73859,26.195971 c -2.25343,0.300951 -4.44427,2.206976 -5.14534,4.476651 -0.31298,1.003171 -0.33802,2.696023 -0.05,3.674114 0.50076,1.692852 1.85282,3.323005 3.36764,4.037764 l 0.75113,0.351109 -0.0375,1.05333 -0.0375,1.040791 -1.3771,0.100317 -1.3771,0.08778 -4.3942,5.404585 -4.381681,5.404585 -4.193898,2.219515 c -2.303514,1.216345 -4.243974,2.257135 -4.29405,2.319833 -0.07511,0.07524 1.251909,3.862209 1.402139,3.975066 0.02504,0.02509 2.316032,-1.015711 5.10779,-2.307293 l 5.07023,-2.357452 2.7542,-3.15999 c 2.24092,-2.583165 2.7542,-3.12237 2.82932,-2.934275 0.05,0.137936 0.32549,2.871577 0.61343,6.081725 l 0.51328,5.84347 -2.82931,5.567602 -2.82931,5.567598 -0.36305,5.692996 c -0.20031,3.134912 -0.3881,5.718077 -0.42565,5.743157 -0.0251,0.02506 -1.02657,0.438887 -2.21588,0.915395 l -2.178325,0.877774 0.05008,1.090949 c 0.01253,0.614442 0.07512,1.3292 0.125193,1.605072 l 0.08763,0.501585 4.907482,0.426349 c 2.70412,0.238254 4.93252,0.401269 4.95756,0.376189 0.0251,-0.02506 0.33801,-3.385703 0.70107,-7.448546 l 0.66351,-7.398387 2.41618,-4.639668 c 1.32702,-2.558087 2.45375,-4.639667 2.51634,-4.627126 0.05,0 1.61496,2.10666 3.48032,4.677284 l 3.38015,4.677286 3.53038,2.884117 3.53039,2.896658 -0.68855,1.354281 c -0.37558,0.75238 -0.67603,1.41698 -0.67603,1.467138 0,0.08778 2.46626,1.667773 3.28,2.119201 0.12519,0.06269 6.25956,-5.61776 6.20948,-5.743158 -0.0251,-0.05016 -2.25344,-2.081579 -4.97009,-4.50173 l -4.94504,-4.401414 -3.39268,-4.877921 -3.39267,-4.865377 -0.17527,-6.733788 c -0.0876,-3.686653 -0.12519,-6.746326 -0.0876,-6.783945 0.0375,-0.03762 1.48977,0.714759 3.24244,1.667773 l 3.19236,1.73047 0.60093,4.953157 c 0.3255,2.721103 0.61343,4.965697 0.61343,4.965697 0.0125,0.01255 2.44123,0.300952 5.40825,0.626983 l 5.39573,0.601901 3.68062,-2.833956 3.68062,-2.8465 0.0376,1.241425 0.0375,1.241424 -2.89192,6.821563 c -1.5774,3.749354 -2.87939,6.871722 -2.87939,6.93442 0,0.0627 0.65101,0.363651 1.4397,0.664604 0.92641,0.351107 1.40214,0.601901 1.35207,0.689677 -0.05,0.07524 -0.50077,0.815078 -1.02657,1.642693 l -0.92641,1.504759 0.1377,4.576969 c 0.0876,2.520466 0.15023,4.777601 0.15023,5.015855 0,0.451427 0,0.451427 -0.75114,0.601901 l -0.76367,0.163016 0.0375,1.090949 0.0375,1.09095 2.99206,0.03762 2.99206,0.02506 -0.10015,-5.743153 -0.0876,-5.743154 1.57741,-1.931106 c 1.40214,-1.717932 1.64,-1.956182 2.05313,-2.031421 0.25038,-0.05016 1.53985,-0.150475 2.84184,-0.200633 l 2.37863,-0.112856 2.70412,2.156815 c 1.47726,1.191266 2.80429,2.219517 2.94199,2.294756 0.1252,0.0627 1.38962,0.526663 2.80428,1.028251 1.41465,0.501585 2.85435,1.015711 3.2174,1.153645 l 0.63848,0.238254 -0.25038,0.764916 -0.2629,0.76492 0.27542,0.200633 c 0.13771,0.112857 0.51328,0.33857 0.82627,0.501585 l 0.56336,0.300953 0.27542,-0.363652 c 1.41465,-1.768086 2.85435,-3.636493 2.85435,-3.686651 0,-0.03762 -1.56489,-0.852695 -3.46779,-1.805708 -3.19238,-1.617616 -4.38169,-2.332374 -7.2736,-4.351255 l -0.66351,-0.463967 0.7261,-0.150474 c 0.40062,-0.07524 1.01405,-0.213177 1.37711,-0.288412 l 0.65099,-0.150479 -4.1313,-7.18521 -4.1313,-7.185214 0.16274,-0.589363 c 0.16275,-0.551745 0.20031,-0.589363 0.60092,-0.614443 0.36305,-0.02508 0.77618,0.200635 2.56641,1.379362 l 2.12825,1.416979 0.75114,3.623956 0.76367,3.636493 1.33954,0.03762 c 0.73864,0.01255 1.33954,-0.01255 1.33954,-0.06269 0,-0.476508 -1.15175,-9.392192 -1.22686,-9.45489 -0.05,-0.03762 -1.77772,-1.279042 -3.83085,-2.73364 -2.84183,-2.006344 -4.09375,-2.821419 -5.15786,-3.335545 -1.36459,-0.639521 -1.41466,-0.677141 -1.5023,-1.128568 -0.0626,-0.376189 -0.0375,-0.501584 0.13771,-0.601902 0.5258,-0.288412 1.1768,-1.015711 1.53985,-1.692851 0.67604,-1.279043 0.75115,-2.909197 0.17527,-4.213319 -0.36306,-0.802538 -1.42718,-1.880946 -2.26596,-2.294754 -0.62595,-0.313491 -0.83877,-0.35111 -1.95298,-0.35111 -1.16428,0 -1.3145,0.02508 -2.09069,0.413808 -0.96397,0.476507 -1.67755,1.216346 -2.19083,2.269675 -0.30047,0.614442 -0.33802,0.852695 -0.35054,1.893485 0,1.02825 0.0501,1.291583 0.33801,1.906026 0.40061,0.852695 1.20183,1.75555 1.95298,2.194436 0.43817,0.263332 0.52581,0.376189 0.47573,0.589363 -0.0375,0.150476 -0.0751,0.326031 -0.0751,0.401269 0,0.08778 -0.35054,0.376189 -0.77618,0.639522 -0.43817,0.275872 -2.50383,1.868406 -4.60703,3.548717 -2.10321,1.667772 -3.88092,3.09729 -3.96856,3.159989 -0.10015,0.08778 -1.22687,-0.100317 -3.31756,-0.526664 -1.74015,-0.363649 -3.19237,-0.677141 -3.21741,-0.70222 -0.0125,-0.01254 -0.26291,-1.74301 -0.52581,-3.82459 -0.2629,-2.09412 -0.53832,-3.84967 -0.5884,-3.899828 -0.0626,-0.0627 -2.71665,-2.043961 -5.92153,-4.426493 l -5.80886,-4.313635 -1.02657,-0.01254 c -0.76366,0 -1.03909,-0.03762 -1.03909,-0.163016 0,-0.08778 -0.0626,-0.614442 -0.12519,-1.178727 l -0.13771,-1.02825 0.92641,-0.915394 c 1.32703,-1.316662 1.96551,-2.808878 1.96551,-4.614587 0,-3.924907 -3.44276,-6.909341 -7.37375,-6.382676 z"
       id="path849"
       style="stroke-width:0.0125294" />
  </g>
</svg>
